out.vcd
$date
	Mon Feb  1 13:18:39 2021
$end
$version
	Icarus Verilog
$end
$timescale
	10ps
$end
$scope module Div_tb $end
$var wire 1 ! State $end
$var wire 16 " Q [15:0] $end
$var wire 17 # A [16:0] $end
$var reg 1 $ Clk $end
$var reg 16 % Dividend [15:0] $end
$var reg 3 & Divisor [2:0] $end
$var reg 1 ' Rst $end
$scope module d $end
$var wire 17 ( A_o [16:0] $end
$var wire 1 $ Clk_i $end
$var wire 16 ) Dividend_i [15:0] $end
$var wire 3 * Divisor_i [2:0] $end
$var wire 16 + Q_o [15:0] $end
$var wire 1 ' Rst_i $end
$var wire 1 , done $end
$var reg 17 - A [16:0] $end
$var reg 17 . A_prev [16:0] $end
$var reg 17 / M [16:0] $end
$var reg 16 0 Q [15:0] $end
$var reg 1 ! State $end
$var reg 4 1 cycle [3:0] $end
$var reg 5 2 n [4:0] $end
$upscope $end
$upscope $end
$enddefinitions $end
#0
$dumpvars
bx 2
b0 1
b0 0
b0 /
b0 .
b0 -
x,
b0 +
b111 *
b100100 )
b0 (
1'
b111 &
b100100 %
0$
b0 #
b0 "
x!
$end
#100
0,
b10000 2
b111 /
b100100 "
b100100 +
b100100 0
1$
#200
0$
#300
1$
#400
0$
0'
#500
b1 1
1$
#600
0$
#700
b1001000 "
b1001000 +
b1001000 0
b10 1
1$
#800
0$
#900
b11 1
b11111111111111001 #
b11111111111111001 (
b11111111111111001 -
1$
#1000
0$
#1100
b0 #
b0 (
b0 -
b1111 2
b0 1
1$
#1200
0$
#1300
b1 1
1$
#1400
0$
#1500
b10010000 "
b10010000 +
b10010000 0
b10 1
1$
#1600
0$
#1700
b11 1
b11111111111111001 #
b11111111111111001 (
b11111111111111001 -
1$
#1800
0$
#1900
b0 #
b0 (
b0 -
b1110 2
b0 1
1$
#2000
0$
#2100
b1 1
1$
#2200
0$
#2300
b100100000 "
b100100000 +
b100100000 0
b10 1
1$
#2400
0$
#2500
b11 1
b11111111111111001 #
b11111111111111001 (
b11111111111111001 -
1$
#2600
0$
#2700
b0 #
b0 (
b0 -
b1101 2
b0 1
1$
#2800
0$
#2900
b1 1
1$
#3000
0$
#3100
b1001000000 "
b1001000000 +
b1001000000 0
b10 1
1$
#3200
0$
#3300
b11 1
b11111111111111001 #
b11111111111111001 (
b11111111111111001 -
1$
#3400
0$
#3500
b0 #
b0 (
b0 -
b1100 2
b0 1
1$
#3600
0$
#3700
b1 1
1$
#3800
0$
#3900
b10010000000 "
b10010000000 +
b10010000000 0
b10 1
1$
#4000
0$
#4100
b11 1
b11111111111111001 #
b11111111111111001 (
b11111111111111001 -
1$
#4200
0$
#4300
b0 #
b0 (
b0 -
b1011 2
b0 1
1$
#4400
0$
#4500
b1 1
1$
#4600
0$
#4700
b100100000000 "
b100100000000 +
b100100000000 0
b10 1
1$
#4800
0$
#4900
b11 1
b11111111111111001 #
b11111111111111001 (
b11111111111111001 -
1$
#5000
0$
#5100
b0 #
b0 (
b0 -
b1010 2
b0 1
1$
#5200
0$
#5300
b1 1
1$
#5400
0$
#5500
b1001000000000 "
b1001000000000 +
b1001000000000 0
b10 1
1$
#5600
0$
#5700
b11 1
b11111111111111001 #
b11111111111111001 (
b11111111111111001 -
1$
#5800
0$
#5900
b0 #
b0 (
b0 -
b1001 2
b0 1
1$
#6000
0$
#6100
b1 1
1$
#6200
0$
#6300
b10010000000000 "
b10010000000000 +
b10010000000000 0
b10 1
1$
#6400
0$
#6500
b11 1
b11111111111111001 #
b11111111111111001 (
b11111111111111001 -
1$
#6600
0$
#6700
b0 #
b0 (
b0 -
b1000 2
b0 1
1$
#6800
0$
#6900
b1 1
1$
#7000
0$
#7100
b100100000000000 "
b100100000000000 +
b100100000000000 0
b10 1
1$
#7200
0$
#7300
b11 1
b11111111111111001 #
b11111111111111001 (
b11111111111111001 -
1$
#7400
0$
#7500
b0 #
b0 (
b0 -
b111 2
b0 1
1$
#7600
0$
#7700
b1 1
1$
#7800
0$
#7900
b1001000000000000 "
b1001000000000000 +
b1001000000000000 0
b10 1
1$
#8000
0$
#8100
b11 1
b11111111111111001 #
b11111111111111001 (
b11111111111111001 -
1$
#8200
0$
#8300
b0 #
b0 (
b0 -
b110 2
b0 1
1$
#8400
0$
#8500
b1 1
1$
#8600
0$
#8700
b10000000000000 "
b10000000000000 +
b10000000000000 0
b1 #
b1 (
b1 -
b10 1
1$
#8800
0$
#8900
b11 1
b11111111111111010 #
b11111111111111010 (
b11111111111111010 -
b1 .
1$
#9000
0$
#9100
b1 #
b1 (
b1 -
b101 2
b0 1
1$
#9200
0$
#9300
b1 1
1$
#9400
0$
#9500
b100000000000000 "
b100000000000000 +
b100000000000000 0
b10 #
b10 (
b10 -
b10 1
1$
#9600
0$
#9700
b11 1
b11111111111111011 #
b11111111111111011 (
b11111111111111011 -
b10 .
1$
#9800
0$
#9900
b10 #
b10 (
b10 -
b100 2
b0 1
1$
#10000
0$
#10100
b1 1
1$
#10200
0$
#10300
b1000000000000000 "
b1000000000000000 +
b1000000000000000 0
b100 #
b100 (
b100 -
b10 1
1$
#10400
0$
#10500
b11 1
b11111111111111101 #
b11111111111111101 (
b11111111111111101 -
b100 .
1$
#10600
0$
#10700
b100 #
b100 (
b100 -
b11 2
b0 1
1$
#10800
0$
#10900
b1 1
1$
#11000
0$
#11100
b0 "
b0 +
b0 0
b1001 #
b1001 (
b1001 -
b10 1
1$
#11200
0$
#11300
b11 1
b10 #
b10 (
b10 -
b1001 .
1$
#11400
0$
#11500
b1 "
b1 +
b1 0
b10 2
b0 1
1$
#11600
0$
#11700
b1 1
1$
#11800
0$
#11900
b10 "
b10 +
b10 0
b100 #
b100 (
b100 -
b10 1
1$
#12000
0$
#12100
b11 1
b11111111111111101 #
b11111111111111101 (
b11111111111111101 -
b100 .
1$
#12200
0$
#12300
b100 #
b100 (
b100 -
b1 2
b0 1
1$
#12400
0$
#12500
b1 1
1$
#12600
0$
#12700
b100 "
b100 +
b100 0
b1000 #
b1000 (
b1000 -
b10 1
1$
#12800
0$
#12900
b11 1
b1 #
b1 (
b1 -
b1000 .
1$
#13000
0$
#13100
b101 "
b101 +
b101 0
1,
b0 2
b0 1
1$
